Chapter 4 Data wrangling - tidyverse | R notes
…
See this SO question for more details.

4.3.3 filter

Filters rows. Several conditions can be used but be careful of notation and precedence: ‘not’, ‘and’ then ‘or’ (see link for more).

For example:

mpg %>%
  filter(year == 1999 | 2000 )

## # A tibble: 234 x 11
##    manufacturer model displ  year   cyl trans drv     cty   hwy fl    class
##    <chr>        <chr> <dbl> <int> <int> <chr> <chr> <int> <int> <chr> <chr>
##  1 audi         a4      1.8  1999     4 auto… f        18    29 p     comp…
##  2 audi         a4      1.8  1999     4 manu… f        21    29 p     comp…
##  3 audi         a4      2    2008     4 manu… f        20    31 p     comp…
##  4 audi         a4      2    2008     4 auto… f        21    30 p     comp…
##  5 audi         a4      2.8  1999     6 auto… f        16    26 p     comp…
##  6 audi         a4      2.8  1999     6 manu… f        18    26 p     comp…
##  7 audi         a4      3.1  2008     6 auto… f        18    27 p     comp…
##  8 audi         a4 q…   1.8  1999     4 manu… 4        18    26 p     comp…
##  9 audi         a4 q…   1.8  1999     4 auto… 4        16    25 p     comp…
## 10 audi         a4 q…   2    2008     4 manu… 4        20    28 p     comp…
## # … with 224 more rows
…
one_of() - selects column names that are from a vector consisting of characters.

everything() - all remaining columns. This is useful for reordering your columns.

See dplyr documentation for more details.

4.3.5 mutate

This allows you to add variables to your dataset. New variables often functions of existing variables.

mpg[,1:3] %>%
  mutate(newcol = paste(manufacturer, model),
         newcol2 = paste(newcol, displ))

## # A tibble: 234 x 5
##    manufacturer model      displ newcol          newcol2            
##    <chr>        <chr>      <dbl> <chr>           <chr>              
##  1 audi         a4           1.8 audi a4         audi a4 1.8        
##  2 audi         a4           1.8 audi a4         audi a4 1.8        
##  3 audi         a4           2   audi a4         audi a4 2          
##  4 audi         a4           2   audi a4         audi a4 2          
##  5 audi         a4           2.8 audi a4         audi a4 2.8        
##  6 audi         a4           2.8 audi a4         audi a4 2.8        
##  7 audi         a4           3.1 audi a4         audi a4 3.1        
##  8 audi         a4 quattro   1.8 audi a4 quattro audi a4 quattro 1.8
##  9 audi         a4 quattro   1.8 audi a4 quattro audi a4 quattro 1.8
## 10 audi         a4 quattro   2   audi a4 quattro audi a4 quattro 2  
## # … with 224 more rows
…
Let’s you rename a column.

4.3.5.2 lead, lag & cum*

lead() and lag() allow you to create another vector which is offset up or down by a certain amount. Using this you can calculate running differences, or find when values change.

Syntax:

lead(data, lead_amount) & lag(data, lag_amount)

mpg[,3] %>%
  mutate(lag = lag(displ,1))

## # A tibble: 234 x 2
##    displ   lag
##    <dbl> <dbl>
##  1   1.8  NA  
##  2   1.8   1.8
##  3   2     1.8
##  4   2     2  
##  5   2.8   2  
##  6   2.8   2.8
##  7   3.1   2.8
##  8   1.8   3.1
##  9   1.8   1.8
## 10   2     1.8
## # … with 224 more rows
…
The tilde (~), separates RHS and LHS. RHS is the condition (TRUE/FALSE result) and the LHS is what you want the row to be changed to if TRUE.

The last option, TRUE, takes all remaining rows and you can set to what you want. Here, we have set it to be the same value as before (though as.character).

You can also create a new column, using case_when within mutate:

mpg[,1] %>%
  mutate(newcol = case_when(
    manufacturer == "audi" ~ "Audi!",
    TRUE ~ .$manufacturer
  ))

## # A tibble: 234 x 2
##    manufacturer newcol
##    <chr>        <chr> 
##  1 audi         Audi! 
##  2 audi         Audi! 
##  3 audi         Audi! 
##  4 audi         Audi! 
##  5 audi         Audi! 
##  6 audi         Audi! 
##  7 audi         Audi! 
##  8 audi         Audi! 
##  9 audi         Audi! 
## 10 audi         Audi! 
## # … with 224 more rows
…
There are a few things too note:

The resulting tibble has the same number of rows as there are groups

The only columns that remain are the column(s) that were used to group and the summarise columns.

You can group by several columns:

mpg %>% 
  group_by(manufacturer, year) %>%
  summarise(meanDispl = mean(displ))

## # A tibble: 30 x 3
## # Groups:   manufacturer [15]
##    manufacturer  year meanDispl
##    <chr>        <int>     <dbl>
##  1 audi          1999      2.36
##  2 audi          2008      2.73
##  3 chevrolet     1999      4.97
##  4 chevrolet     2008      5.12
##  5 dodge         1999      4.32
##  6 dodge         2008      4.42
##  7 ford          1999      4.45
##  8 ford          2008      4.66
##  9 honda         1999      1.6 
## 10 honda         2008      1.85
## # … with 20 more rows
…
Adding the . gives you the head() of each group:

mpg %>%
  group_by(manufacturer) %>%
  do(head(.))

## # A tibble: 82 x 11
## # Groups:   manufacturer [15]
##    manufacturer model displ  year   cyl trans drv     cty   hwy fl    class
##    <chr>        <chr> <dbl> <int> <int> <chr> <chr> <int> <int> <chr> <chr>
##  1 audi         a4      1.8  1999     4 auto… f        18    29 p     comp…
##  2 audi         a4      1.8  1999     4 manu… f        21    29 p     comp…
##  3 audi         a4      2    2008     4 manu… f        20    31 p     comp…
##  4 audi         a4      2    2008     4 auto… f        21    30 p     comp…
##  5 audi         a4      2.8  1999     6 auto… f        16    26 p     comp…
##  6 audi         a4      2.8  1999     6 manu… f        18    26 p     comp…
##  7 chevrolet    c150…   5.3  2008     8 auto… r        14    20 r     suv  
##  8 chevrolet    c150…   5.3  2008     8 auto… r        11    15 e     suv  
##  9 chevrolet    c150…   5.3  2008     8 auto… r        14    20 r     suv  
## 10 chevrolet    c150…   5.7  1999     8 auto… r        13    17 r     suv  
## # … with 72 more rows
…
